{
    "fluentMethods": true,
    "relationships": [],
    "fields": [
        {
            "fieldName": "annoTributaId",
            "fieldType": "Long"
        },
        {
            "fieldName": "bipersonal",
            "fieldType": "String"
        },
        {
            "fieldName": "capital",
            "fieldType": "BigDecimal"
        },
        {
            "fieldName": "capMon",
            "fieldType": "BigDecimal"
        },
        {
            "fieldName": "codInst",
            "fieldType": "Long"
        },
        {
            "fieldName": "codMon",
            "fieldType": "Long"
        },
        {
            "fieldName": "codTipoInt",
            "fieldType": "Long"
        },
        {
            "fieldName": "correlativo",
            "fieldType": "Long"
        },
        {
            "fieldName": "corrMoneda",
            "fieldType": "Long"
        },
        {
            "fieldName": "ctaCap",
            "fieldType": "Long"
        },
        {
            "fieldName": "ctaInt",
            "fieldType": "Long"
        },
        {
            "fieldName": "ctaReaj",
            "fieldType": "Long"
        },
        {
            "fieldName": "dv",
            "fieldType": "String"
        },
        {
            "fieldName": "estCta",
            "fieldType": "String"
        },
        {
            "fieldName": "extranjero",
            "fieldType": "String"
        },
        {
            "fieldName": "fechaInv",
            "fieldType": "ZonedDateTime"
        },
        {
            "fieldName": "fechaPago",
            "fieldType": "ZonedDateTime"
        },
        {
            "fieldName": "fecCont",
            "fieldType": "ZonedDateTime"
        },
        {
            "fieldName": "fecVcto",
            "fieldType": "ZonedDateTime"
        },
        {
            "fieldName": "folio",
            "fieldType": "String"
        },
        {
            "fieldName": "idTable",
            "fieldType": "Long"
        },
        {
            "fieldName": "impExt",
            "fieldType": "BigDecimal"
        },
        {
            "fieldName": "indPago",
            "fieldType": "String"
        },
        {
            "fieldName": "intNom",
            "fieldType": "BigDecimal"
        },
        {
            "fieldName": "intReal",
            "fieldType": "BigDecimal"
        },
        {
            "fieldName": "monFi",
            "fieldType": "Long"
        },
        {
            "fieldName": "monPac",
            "fieldType": "Long"
        },
        {
            "fieldName": "monTasa",
            "fieldType": "BigDecimal"
        },
        {
            "fieldName": "nemotecnico",
            "fieldType": "String"
        },
        {
            "fieldName": "nomCli",
            "fieldType": "String"
        },
        {
            "fieldName": "numCupones",
            "fieldType": "Long"
        },
        {
            "fieldName": "numCuponPago",
            "fieldType": "Long"
        },
        {
            "fieldName": "numGiro",
            "fieldType": "Long"
        },
        {
            "fieldName": "onp",
            "fieldType": "String"
        },
        {
            "fieldName": "origen",
            "fieldType": "String"
        },
        {
            "fieldName": "perTasa",
            "fieldType": "Long"
        },
        {
            "fieldName": "plazo",
            "fieldType": "Long"
        },
        {
            "fieldName": "producto",
            "fieldType": "Long"
        },
        {
            "fieldName": "reajustabilidad",
            "fieldType": "String"
        },
        {
            "fieldName": "rut",
            "fieldType": "Long"
        },
        {
            "fieldName": "serieInst",
            "fieldType": "String"
        },
        {
            "fieldName": "tasaEmi",
            "fieldType": "BigDecimal"
        },
        {
            "fieldName": "tipoInt",
            "fieldType": "String"
        },
        {
            "fieldName": "valorNominal",
            "fieldType": "BigDecimal"
        }
    ],
    "changelogDate": "20180809165547",
    "javadoc": "Representa la vista VW_L_B (Bonos y Letras) que une las tablas BONOS, LHBONOS y LHDCV.\n\n@author Antonio Marrero Palomino.",
    "entityTableName": "vw_l_b",
    "dto": "no",
    "pagination": "pagination",
    "service": "no",
    "jpaMetamodelFiltering": false
}
