{
    "fluentMethods": true,
    "relationships": [
        {
            "relationshipType": "one-to-many",
            "relationshipName": "inst",
            "otherEntityName": "instrumento",
            "otherEntityRelationshipName": "producto"
        }
    ],
    "fields": [
        {
            "fieldName": "nombreProducto",
            "fieldType": "String"
        },
        {
            "fieldName": "usuarioProducto",
            "fieldType": "String"
        },
        {
            "fieldName": "adminProducto",
            "fieldType": "String"
        },
        {
            "fieldName": "tituloCertificado",
            "fieldType": "String"
        }
    ],
    "changelogDate": "20180124184043",
    "entityTableName": "producto",
    "dto": "no",
    "pagination": "no",
    "service": "serviceImpl",
    "jpaMetamodelFiltering": false
}